Soma_Produtos/simulation/qsim/Soma_Produtos.msim.vcd
$comment
	File created using the following command:
		vcd file Soma_Produtos.msim.vcd -direction
$end
$date
	Thu Oct 22 22:07:56 2020
$end
$version
	ModelSim Version 10.5b
$end
$timescale
	1ps
$end

$scope module Soma_Produtos_vlg_vec_tst $end
$var reg 1 ! A $end
$var reg 1 " B $end
$var reg 1 # C $end
$var wire 1 $ D $end

$scope module i1 $end
$var wire 1 % gnd $end
$var wire 1 & vcc $end
$var wire 1 ' unknown $end
$var tri1 1 ( devclrn $end
$var tri1 1 ) devpor $end
$var tri1 1 * devoe $end
$var wire 1 + ~QUARTUS_CREATED_GND~I_combout $end
$var wire 1 , ~QUARTUS_CREATED_UNVM~~busy $end
$var wire 1 - ~QUARTUS_CREATED_ADC1~~eoc $end
$var wire 1 . D~output_o $end
$var wire 1 / A~input_o $end
$var wire 1 0 B~input_o $end
$var wire 1 1 C~input_o $end
$var wire 1 2 8~0_combout $end
$upscope $end
$upscope $end
$enddefinitions $end
#0
$dumpvars
0!
0"
0#
0$
0%
1&
x'
1(
1)
1*
0+
z,
z-
0.
0/
00
01
02
$end
#125000
1#
11
12
1.
1$
#250000
1"
0#
01
10
#375000
1#
11
#500000
1!
0"
0#
01
00
1/
02
0.
0$
#625000
1#
11
#750000
1"
0#
01
10
#875000
1#
11
12
1.
1$
